Isaac,89782040015,Garden - Marbo Cake - Cherry & Raisin 75g,,"cake, garden, marbo cake",http://www.garden.com.hk/files/products/hk-4001.jpg,Kind of bitter tasting. Chocolate flavour is much better!,Superstore Hang Hau,Wellcome,"18 Pui Shing Road, Hang Hau",2246 3249,$8.40,2018-04-02T16:51:17+08:00,Buy 2 at $13.40,Yan Hong Dispensary,,"L1-107, The Lane, 15 Pui Shing Rd, Hang Hau",2141 0168,$7.90,2018-03-18T15:14:25+08:00,,,,,,,
Isaac,4897024513021,Tempo - Facial Box Tissue - Neutral 4 boxes,http://www.vindapaper.com/en/product/p1/tempo/index.html,"tissue, toilet roll, tempo",http://www.vindapaper.com/upload/2017/0606/0925pjfthz.jpg,The tissue paper breaks down very easily. PIECE OF CRAP!!!,TKO Gateway Store,ParkNShop,"Shop No. 301, 3/Fl, Sheung Tak Shopping Centre, Sheung Tak Estate, Hang Hau",2715 1628,$28.50,2018-03-01T12:31:24+08:00,Buy 2 to save $2.10,Tseung Kwan O Store,Pricemart,"Shop UG09-10, Metro City Phase II, Po Lam",,$27.60,2018-03-21T17:26:55+08:00,,,,,,,
家俊,5099206051591,Logitech G502 MOUSE,http://support.logitech.com/zh_hk/product/g502-proteus-core-tunable-gaming-mouse,"mouse,hardware,esport",https://secure.logitech.com/assets/51138/11/g502-proteus-core.png,fit hand size. smooth enough,Wan Chai CEC,CEC,"旺角旺角電腦中心, 1/F, 111舖",2323 2938,$499.00,2018-04-03T16:15:17+08:00,"原裝行貨,兩年保用,7天有壞包換",Mong Kok Store,訊達科技公司,旺角奶路臣街8號旺角電腦中心318-319室,2720 1145,$350.00,2018-04-02T11:26:55+08:00,,,,,,,
家俊,6935953361738,Little Sheep - Hot Pot Soup Base - Plain 130g,,"soup,food",https://images-na.ssl-images-amazon.com/images/I/81hRXooHSML._SL1500_.jpg,delicious,Tsz Wan Shan Superstore,Wellcome,"LG/F, 1-3 Tsui Fung Street, Tsz Wan Shan, Kowloon",2246 3249,$9.90,2018-04-02T20:51:17+08:00,Cheap, Tai Po Wellcome,Wellcome,"Shop No. S201, 2/F., Fu Shin Shopping Centre, Fu Shin Estate, No. 12 On Po Road, Tai Po, N.T",2491 9534,$11.00,2018-04-01T12:26:55+08:00,,,,,,,
家俊,4891248060750,Four Seas - Fish Dumpling 150g,http://www.parknshop.com/en/fish-dumpling/p/BP_133111,"dumpling, food",http://www.parknshop.com/medias/sys_master/front/prd/8923469348894.jpg,taste like chemical,Fu Shin Estate Store,Wellcome,"LG/F, 1-3 Tsui Fung Street, Tse Wan Shan, Kowloon",2352 4166,$12.90,2018-04-01T12:11:23+08:00,buy 2 to save $3,Golden Centre,Wellcome,"Basement, Golden Centre, 94 YenChow Street, Shamshuipo, Kowloon",2728 5275,$15.40,2018-04-01T12:17:23+08:00,,,,,,,
家俊,89686175806,Indomie - Fried Noodles - Original Flavour (5 in 1) 80g x 5,https://www.amazon.com/Indomie-FRIED-NOODLES-HALAL-Goreng/dp/B00BEBMJX0,Instant noodles,https://images-na.ssl-images-amazon.com/images/I/91Po1lrLG%2BL._SL1500_.jpg,taste good but not enough,Fung Wong Store,Wellcome,"LG/F, 1-3 Tsui Fung Street, Tse Wan Shan, Kowloon",2715 1647,$12.90,2018-04-03T12:12:25+08:00,一袋5個,Golden Hill,Wellcome,"Shop 2 (Portion) 1/F,Wonderlan Villas Commercial Compiex,Wah King Hill Road.Kwai Chung.",2785 2846,$14.00,2018-04-03T12:16:25+08:00,,,,,,,
家俊,4892333101204,Doll - Bowl Mifun - Chicken,http://www.parknshop.com/en/bowl-mifun-chicken/p/BP_176160,Instant noodles,http://wahkiustationery.com.hk/image/cache/bigboXX%20Catalogue/05%20Breakroom/02%20Snacks/02%20Chip%20-%20Noddles/114818-228x228.jpg,too salty.,Fu Tung Store,ParkNShop,"Shop 107, 1/F, Fu Tung Plaza, Fu Tung Estate, Tung Chung, Lantau Island",,$11.00,2018-03-08T12:04:15+08:00,buy 2 to save $1.5,Grandeur Terrace,Wellcome,"Shop 101-102, 1/F Commercial & Car Park Complex, Grandeur Terrace, No.88 Tin Shui Road, Tin Shui Wai, NT",2479 6723,$12.00,2018-03-08T12:06:15+08:00,,,,,,,
家俊,9311218110179,Lindemans - Cawarra Shiraz Cabernet 750mL,,"Beer,Wines,Spirits",http://www.bhatbhatenionline.com/10523/lindeman-s-cawarra-shiraz-cabernet-750-ml.jpg,good to wash my mouth,Perkins,MarketPlace,"1/F, 5 Perkins Road, Jardine's Lookout, Hong Kong",2577 0185,$59.00,2018-04-09T14:02:04+08:00,not bad,Surson Building,MarketPlace,"G/F, Surson Commercial Building, 140 – 142 Austin Rd, Tsim Sha Tsui, Kowloon",3580 1325,$80.00,2018-02-15T12:16:55+08:00,,,,,,,
家俊,5000213000496,Guinness - Foreign Extra Stout - Bottle 640mL,https://www.guinness.com/en/our-beers/guinness-foreign-extra-stout/,"Beer,Wines,Spirits",https://upload.wikimedia.org/wikipedia/commons/thumb/0/0a/Guinness_Foreign_Extra.jpg/170px-Guinness_Foreign_Extra.jpg,bitter,Living PLAZA by AEON Causeway Bay Canal Shop,AEON,"Shop MA, M/F., Wing Tak Mansion, 15 Canal Road West, Wan Chai, Hong Kong.",2892 1812,$31.50,2018-03-01T02:56:25+08:00,buy 2 to save $4,Razor Hill,MarketPlace,"G/F, DD253, Lot 1177, Razor Hill, Clear Water Bay, Sai Kung, N.T.",2358 0542,$25.50,2018-04-01T04:26:45+08:00,,,,,,,
家俊,818064010015,Cheer - Fresh Milk 946mL,http://www.parknshop.com/en/fresh-milk/p/BP_366081,"Milk,Milk drinks",http://images.hktvmall.com/h0888001/c2fc10f7fb7258c53731c453d203f4fd708ddf6a/h0888001_10015952_170405063506_01_1200.jpg,taste bad.,Living PLAZA by AEON Tin Shui Wai Shop,AEON,"Shop No. 222A on the Second Floor of Fortune Kingswood Phase 1, 12-18 Tin Yan ",2617 8863,$24.90,2018-01-09T15:02:04+08:00,close to due date,Lam Tei,Wellcome,"Shop A & B, G/F, The Sherwood, 8 Fuk Hang Tsuen Road, Lam Tei, N.T",2328 7511,$25.00,2018-04-01T12:36:55+08:00,,,,,,,
家俊,4893318634355,Kowloon Dairy - Deluxe Chocolate Slimilk Milk Drink 236mL,http://www.kowloondairy.com/en/product-post/hi-calcium-deluxe-chocolate/,"Milk,Milk drinks",https://www.kowloondairy.com/wp-content/themes/temp/images/product/product4/product1_2.png,taste good. strong choco taste,Bento Express by AEON Tai Wai Shop,AEON,Shop TAW 50 at MTR Tai Wai Station,3470 3083,$7.00,2018-01-19T18:02:04+08:00,none,AEON STYLE Kornhill,AEON,"Kornhill Plaza (South), 2 Kornhill Road, Quarry Bay, Hong Kong",2884 6888,$6.50,2018-04-01T02:56:15+08:00,,,,,,,
家俊,4891118130477,Nestle Dairy Farm - Skimmed Hi-Calcium Milk Drink 946mL,https://www.nestle.com.hk/brands/milk/dairyfarm,"Milk,Milk drinks",http://www.parknshop.com/medias/sys_master/front/cat/8964372299806.jpg,too plain,La Boh?me Bakery Wan Chai Shop,AEON,MTR Station Kiosk WAC 6 at MTR Wan Chai Station,2510 7638,$7.50,2018-07-09T15:35:14+08:00,close to due date,AEON Tuen Mun Store,AEON ,"UG & 1/F, Phase1, Tuen Mun Town Plaza, 1 Tuen Shun Street, Tuen Mun, New ",2452 7333,$7.00,2018-05-09T14:52:04+08:00,,,,,,,
yungs,4893999217056,Cherry Blossom Castle Brand - Japonica Species Pearl Rice 5kg,https://www.hktvmall.com/hktv/en/main/%E5%A4%A7%E8%A1%97%E5%B8%82/s/H0888001/Supermarket/Supermarket/Rice-%26-Cooking-Oil/Rice/Others/Japonica-Species-Pearl-Rice/p/H0888001_S_10015580,rice,http://www.hktvmall.com/medias/sys_master/impex/impex/hdf/hfd/9292543852574.jpg,so cheap,HKTVmall O2O Shop (Sham Tseng),HKTVMALL,"Shop B,C,D, G/f, No. 48 Castle peak Road, Sham Tseng, Tsuen Wan",3145 6888,$52.90,2018-04-03T19:35:14+08:00,none,2 Gether,Wellcome,"Shop 101, 1/F, 2GETHER, 8 Wu on Street, Tuen Mun, NT.",2870 8888,$56.90,2018-02-22T20:40:14+08:00,,,,,,,
yungs,4891513312010,7-up 1.25L,https://www.tesco.ie/groceries/Product/Details/?id=262076981,drink,http://emersonsonline.com/product-images/vl/5011026363630.jpg,too sweet ,Aster Court,Wellcome,"Portion of 1/ F, Aster Court 8 Hung Shui Kiu, Yuen Long, NT",2576 5218,$8.90,2018-03-22T02:40:14+08:00,buy three 60% off,AEON SUPERMARKET藍田店,AEON,九龍藍田啟田道啟田商場321-322號舖,2952 6822,$7.00,2018-12-09T08:35:14+08:00,,,,,,,
yungs,8716200715522,Friso - Gold 1 Frisolac - 900g,https://easyorder.friso.com.hk/en/friso-products/friso-gold-stage-1.html,baby formula,https://suabottot.com/wp-content/uploads/2015/06/sua-frisolac-gold-1-900g.jpg,hard to eat,E-MAX,ParkNShop,"香港九龍灣展貿徑1號九龍灣展貿中心2樓230, 232A, 237及239號",,$314.00,2018-12-12T12:40:14+08:00,expensive ,Ap Lei Chau,Wellcome,"Shop A & B, G/F Coble Court, 127 – 139 Ap Lei Chau Main Street, Aberdeen, HK",3572 9563,$312.50,2018-07-03T20:35:14+08:00,,,,,,,
yungs,34000140336,Cadbury - Dairy Milk Chocolate - Milk Chocolate 200g,https://www.tesco.com/groceries/en-GB/products/273968548,chocolate,https://cdn0.woolworths.media/content/wowproductimages/large/826428.jpg,not as expected,Hong Lai,Wellcome,"Shop No. 48, G/F, Tuen Mun Paris London New York Cinema Shopping Centre",2452 3252,$25.90,2018-01-31T23:40:14+08:00,very useful,E-MAX,ParkNShop,"香港九龍灣展貿徑1號九龍灣展貿中心2樓230, 232A, 237及239號",,$27.90,2017-03-19T20:35:14+08:00,,,,,,,
yungs,4893318633635,Kowloon Dairy - Skimmed Hi-Ca Milk Drink 236mL,https://www.abbottmama.com.hk/eleva/tc/?utm_source=google&utm_medium=sem&utm_campaign=eleva_always_on,milk,https://www.kowloondairy.com/wp-content/themes/temp/images/product/product1/product1_n.png,don't buy this one,佐敦薈,ParkNShop,九龍彌敦道 233 號佐敦薈地庫,,$7.80,2018-12-03T10:40:14+08:00,it makes me feel good,AEON SUPERMARKET尖沙咀店,AEON,九龍尖沙咀彌敦道100號The One LG1 & LG2,2673 6108,$7.20,2018-01-06T05:35:14+08:00,,,,,,,
yungs,8000500126325,Kinder - Joy - Crispy Cocoa Specialities on Milky and Cocoa Creams including Surprise Toy for Girls (Tripack) 20g x 3,https://www.amazon.co.uk/KINDER-SURPRISE-grams-total-LIMITED/dp/B00HJXBF6O,chocolate,https://images-na.ssl-images-amazon.com/images/I/411EsLc1fPL.jpg,you can have better choice,Repulse Bay,MarketPlace,"Shop G128, Repulse Bay Arcade, 109 Repulse Bay Road, Hong Kong",2812 0340,$17.90,2018-01-24T02:40:14+08:00,worth it ,Aster Court,Wellcome,"Portion of 1/ F, Aster Court 8 Hung Shui Kiu, Yuen Long, NT",2576 5218,$15.00,2017-02-01T23:35:14+08:00,,,,,,,
yungs,4898833515725,Camel Brand - Peanut Oil 5L,https://item.jd.com/5778970.html,oil,https://img10.360buyimg.com/n1/jfs/t11254/150/2314234932/275131/a778862b/5a152765N51083d40.jpg,none,AEON SUPERMARKET藍田店,AEON,九龍藍田啟田道啟田商場321-322號舖,2952 6822,$136.90,2018-03-12T22:40:14+08:00,"so worst, not good to but",2 Gether,Wellcome,"Shop 101, 1/F, 2GETHER, 8 Wu on Street, Tuen Mun, NT.",2870 8888,$131.50,2018-12-03T21:35:14+08:00,,,,,,,
yungs,4901004021106,Asahi - Super Dry Beer - Can 330mL x 6,https://redmart.com/product/asahi-super-dry,beer,https://s3-ap-southeast-1.amazonaws.com/media.redmart.com/newmedia/460x/i/m/img_3037.jpg,this is the price that I would like to buy,Hong Lai,Wellcome,"Shop No. 48, G/F, Tuen Mun Paris London New York Cinema Shopping Centre",2452 3252,$58.90,2018-07-22T22:40:14+08:00,none,Chung Fu 2,Wellcome,"G017, G/F Chung Fu Shopping Plaza, Tin Chung Court, Tin Shui Wai, NT",2259 5337,$51.50,2018-02-28T22:35:14+08:00,,,,,,,
yungs,4891388141159,AXE Plus - Antibacterial Deodorizing Liquid Laundry Detergent 2L,https://www.hktvmall.com/hktv/en/AXE/Plus-Antibacterial-Deodorizing-Liquid-Laundry-Detergent/p/H0888001_S_10014239,detergent,http://images.hktvmall.com/h0888001/44133/h0888001_10014239_160527041224_01_1200.jpg,want to buy more,AEON SUPERMARKET尖沙咀店,AEON,九龍尖沙咀彌敦道100號The One LG1 & LG2,2673 6108,$41.90,2018-12-22T12:40:14+08:00,more than good,E-MAX,ParkNShop,"香港九龍灣展貿徑1號九龍灣展貿中心2樓230, 232A, 237及239號",,$40.50,2018-03-11T23:35:14+08:00,,,,,,,
yungs,9062300128533,Hipp - Combiotic 4 Junior (Growing Young Children) Milk 800g,https://www.ztore.com/en/product/4-junior-combiotic-growing-up-milk-1012644-c1639,powder formula,https://cdn.ztore.com/images/ztore/production/product/640px/1012644_1.jpg?1476527880,this is so expensive,Ap Lei Chau,Wellcome,"Shop A & B, G/F Coble Court, 127 – 139 Ap Lei Chau Main Street, Aberdeen, HK",3572 9563,$288.50,2018-08-22T08:40:14+08:00,you should go to buy one,Tin Hau,MarketPlace,"Shop A, G/F, Magnolia Mansion, 4 Tin Hau Temple Road, Hong Kong",2807 1456,$288.00,2018-01-19T15:58:14+08:00,,,,,,,
yungs,51325113869,Mamee - Instant Noodle 80g x 5,http://www.samsgroceria.com/products/detail/?pid=10069926,instant noodles,http://www.samsgroceria.com/media/sonettoimages/9555022303208_10069926_true_1_760x760.jpg,extraordinary,Tin Hau,MarketPlace,"Shop A, G/F, Magnolia Mansion, 4 Tin Hau Temple Road, Hong Kong",2807 1456,$16.70,2018-04-24T22:40:14+08:00,the is so good to buy,Hong Lai,Wellcome,"Shop No. 48, G/F, Tuen Mun Paris London New York Cinema Shopping Centre",2452 3252,$15.90,2018-10-19T13:35:14+08:00,,,,,,,
ChiHo,7311271612117,"Sony Xperia XZ2 Dual H8296 (64GB, Liquid Black)",http://www.wilsoncomm.com.hk/product-display-1489,"smartphone, sony, xperia",http://www.wilsoncomm.com.hk/public/assets/common/product/product-1489/banner1.jpg,sony is good,Tsuen Wan,Wilson,"大鴻輝(荃灣)中心 大 鴻 輝 中心 號 G05 及 G15 號 舖, 55 Chung On St, Tsuen Wan",3188 4828,"$6,198.00",2018-03-22T14:06:33+08:00,expensive but good,,,,,,,,,,,,,
ChiHo,190198134820,"Apple 13"" MacBook Pro, Retina, Touch Bar, 3.1GHz Intel Core i5 Dual Core, 8GB RAM, 512GB SSD, Space Gray, MPXW2LL/A (Newest Version)",http://www.apple.com/hk/retail/ifcmall/,"macbookpro, apple, notebook","https://store.storeimages.cdn-apple.com/8750/as-images.apple.com/is/image/AppleInc/aos/published/images/m/bp/mbp13/gray/mbp13-gray-select-201610?wid=452&hei=420&fmt=jpeg&qlt=95&op_usm=0.5,0.5&.v=1495842439811",macbook pro so fast,Apple store IFC mall,Apple,香港島中環金融街8號國際金融中心商場,3972 1500,"$9,988.00",2018-03-14T11:00:03+08:00,fair price,銅鑼灣怡和街豐澤,Fortress,"V Causeway Bay, Shop 3, G/F, V, Yee Wo St, Causeway Bay",2811 1200,"$9,988.00",2018-03-22T15:30:21+08:00,,,,,,,
ChiHo,5032037108652,Intel? Core? i7-8700 Processor,centralfield.com,"intel, coffee lake, cpu",https://www.scan.co.uk/images/products/2880576-a.jpg,intel so good,Centralfield Golden ,Centralfield,"黃金大廈 Shop 10-17, 1/F, Golden Computer Center, Fuk Wa St, Sham Shui Po",2387 0273,$2370,2018-04-01T10:43:44+08:00,expensive,Jumbo Computer,Jumbo Computer,"旺角旺角電腦中心, 1/F, 111舖",2782 6482,$2350,2018-04-02T12:04:33+08:00,,,,,,,
ChiHo,730143308328,"AMD, Ryzen7 1700, 3.7GHz with Boost, 8 Cores/16 Threads UNLOCKED, 4MB/16LB Caches, AM4, Wraith Spire LED Cooler, 65W TDP",centralfield.com,"amd, ryzen, zen, cpu",https://d1sfu4378rr01a.cloudfront.net/images/139479_l.jpg,amd new break through,Centralfield Golden ,Centralfield,"黃金大廈 Shop 10-17, 1/F, Golden Computer Center, Fuk Wa St, Sham Shui Po",2388 0273,"$2,350.00",2018-04-01T10:43:44+08:01,cheap,Jumbo Computer,Jumbo Computer,"旺角旺角電腦中心, 1/F, 111舖",2783 6482,"$2,235.00",2018-04-02T12:04:33+08:01,,,,,,,
ChiHo,4712366966321,8GB ADATA Premier DDR4-2133 CL15 1.2V,centralfield.com,"ram, adata, electronic",http://www.terminalhk.com/api/public/productPicture/574e4bd076afa4ec10a87a5e,cheap ram,Centralfield Golden ,Centralfield,"黃金大廈 Shop 10-17, 1/F, Golden Computer Center, Fuk Wa St, Sham Shui Po",2389 0273,$490.00,2018-04-01T10:43:44+08:02,cheap,Jumbo Computer,Jumbo Computer,"旺角旺角電腦中心, 1/F, 111舖",2784 6482,$488.00,2018-04-02T12:04:33+08:02,,,,,,,
ChiHo,649528777195,"275GB 2.5"" Crucial MX300 SATA3 SSD - V",centralfield.com,"ssd, electronic, crucial",https://images-na.ssl-images-amazon.com/images/I/811xD57h1WL._SX425_.jpg,"fast, good ssd",Centralfield Golden ,Centralfield,"黃金大廈 Shop 10-17, 1/F, Golden Computer Center, Fuk Wa St, Sham Shui Po",2390 0273,$677.00,2018-04-01T10:43:44+08:03,cheap,Jumbo Computer,Jumbo Computer,"旺角旺角電腦中心, 1/F, 111舖",2785 6482,$670.00,2018-04-02T12:04:33+08:03,,,,,,,
ChiHo,8806071285221,"23"" SAMSUNG C23A550U 16:9 Central Station LED BACKLIGHT",centralfield.com,"samsung, LCD",http://images.samsung.com/is/image/samsung/africa-en_LC23A750XS-XA_001_Front?$TM-Gallery$,good resolution,Centralfield Golden ,Centralfield,"黃金大廈 Shop 10-17, 1/F, Golden Computer Center, Fuk Wa St, Sham Shui Po",2391 0273,"$1,580.00",2018-04-01T10:43:44+08:04,quite expensive,,,,,,,,,,,,,
ChiHo,5449000009500,coca cola x12cans 330ml,https://www.wellcome.com.hk/,"coca cola, soft drinks",http://groceries.iceland.co.uk/medias/sys_master/root/h98/hb8/8966838714398.jpg,good soft drinks,Wellcome Tai Wo Hau,Wellcome,"Shop C7, 2/F Commercial Centre, Estate, Tsuen Wan, NT, Tai Wo Hau Rd, Kwai Chung",2410 8015,$37.9,2018-04-01T10:43:44+08:05,in hot sale,ParknShop Tsing Yi,ParknShop,"新界 青衣 翠 怡 花園 第 一 期 商場 地下 5 號 鋪, Tsing Yi",2494 5016,$37.90,2018-04-02T12:04:33+08:05,,,,,,,
ChiHo,4891028664840,vitasoy soya milk x6packs250ml,https://www.wellcome.com.hk/,"vita, soy bean, coca cola",https://starrymart.co.uk/pub/media/catalog/product/cache/small_image/450x480/beff4985b56e3afdbeabfc89641a4582/4/8/4891028664840.jpg,kids like it very much,Wellcome Tai Wo Hau,Wellcome,"Shop C7, 2/F Commercial Centre, Estate, Tsuen Wan, NT, Tai Wo Hau Rd, Kwai Chung",2411 8015,$18.5,2018-04-01T10:43:44+08:06,in hot sale,ParknShop Tsing Yi,ParknShop,"新界 青衣 翠 怡 花園 第 一 期 商場 地下 5 號 鋪, Tsing Yi",2495 5016,$18.5,2018-04-02T12:04:33+08:06,,,,,,,
ChiHo,4899668101053,g/elephant premium jasmine rice 5kg,https://www.wellcome.com.hk/,"rice, thailand",http://images.hktvmall.com/h0888001/71232/h0888001_10016911_161215104941_01_1200.jpg,"good rice, sweet smell",Wellcome Tai Wo Hau,Wellcome,"Shop C7, 2/F Commercial Centre, Estate, Tsuen Wan, NT, Tai Wo Hau Rd, Kwai Chung",2412 8015,$59.90,2018-04-01T10:43:44+08:07,in hot sale,ParknShop Tsing Yi,ParknShop,"新界 青衣 翠 怡 花園 第 一 期 商場 地下 5 號 鋪, Tsing Yi",2496 5016,$59.9,2018-04-02T12:04:33+08:07,,,,,,,